timestamp,symbol,days since pivot,pivot percent away,pivot day,day,rs rating
2020-06-10 09:14:37.453977,AAPL,30.0,0.21,2020-05-11 09:14:37.453977,2020-05-11,
2020-06-02 09:01:27.811810,AAXN,17.0,0.21,2020-05-16 09:01:27.811810,2020-05-16,
2020-06-05 08:27:31.866113,ACLS,126.0,0.2,2020-01-31 08:27:31.866113,2020-01-31,
2020-06-18 09:09:52.910095,ADBE,37.0,0.2,2020-05-12 09:09:52.910095,2020-05-12,
2020-06-01 14:00:45.207183,ADSK,25.0,0.21,2020-05-07 14:00:45.207183,2020-05-07,
2020-07-20 12:51:44.706412,AGI,16.0,0.22,2020-07-04 12:51:44.706412,2020-07-04,93.0
2020-07-01 08:14:05.933221,AMRC,7.0,0.24,2020-06-24 08:14:05.933221,2020-06-24,93.0
2020-06-03 09:34:29.490493,AMSWA,72.0,0.21,2020-03-23 09:34:29.490493,2020-03-23,
2020-06-10 09:03:57.130837,AMZN,41.0,0.21,2020-04-30 09:03:57.130837,2020-04-30,
2020-07-16 10:53:20.008982,APD,48.0,0.23,2020-05-29 10:53:20.008982,2020-05-29,
2020-07-06 12:38:12.573476,ASML,32.0,0.21,2020-06-04 12:38:12.573476,2020-06-04,94.0
2020-06-10 09:07:19.889138,AUDC,142.0,0.49,2020-01-20 09:07:19.889138,2020-01-20,
2020-07-11 15:00:30.027934,AVLR,45.0,0.41,2020-05-27 15:00:30.027934,2020-05-27,
2020-06-23 08:22:20.323940,AYX,92.0,0.43,2020-03-23 08:22:20.323940,2020-03-23,
2020-05-13 22:40:58.998537,BAND,10.0,0.33,2020-05-03 22:40:58.998537,2020-05-03,
2020-07-14 08:42:44.778805,BILI,66.0,0.48,2020-05-09 08:42:44.778805,2020-05-09,
2020-06-22 07:40:25.437202,BITA,50.0,0.46,2020-05-03 07:40:25.437202,2020-05-03,
2020-05-22 09:03:40.176368,BJ,10.0,0.35000000000000003,2020-05-12 09:03:40.176368,2020-05-12,
2020-07-06 08:03:01.557994,BL,27.0,0.21,2020-06-09 08:03:01.557994,2020-06-09,
2020-05-28 09:14:45.577277,BMRN,29.0,0.24,2020-04-29 09:14:45.577277,2020-04-29,
2020-07-06 08:02:35.859690,CALX,48.0,0.41,2020-05-19 08:02:35.859690,2020-05-19,
2020-07-11 14:58:47.338859,CDNS,59.0,0.26,2020-05-13 14:58:47.338859,2020-05-13,
2020-07-21 11:27:41.981418,CEVA,51.0,0.2,2020-05-31 11:27:41.981418,2020-05-31,
2020-05-13 22:40:02.705399,CHGG,7.0,0.44,2020-05-06 22:40:02.705399,2020-05-06,
2020-06-09 10:37:19.339624,CIEN,45.0,0.22,2020-04-25 10:37:19.339624,2020-04-25,
2020-06-10 09:02:54.547428,CLDR,136.0,0.22,2020-01-26 09:02:54.547428,2020-01-26,
2020-06-01 10:22:14.210805,CMG,104.0,0.21,2020-02-18 10:22:14.210805,2020-02-18,
2020-05-15 10:26:03.707122,COUP,12.0,0.2,2020-05-03 10:26:03.707122,2020-05-03,
2020-05-26 07:52:44.595423,CRL,13.0,0.2,2020-05-13 07:52:44.595423,2020-05-13,
2020-05-19 19:20:19.407144,CTLT,104.0,0.44,2020-02-05 19:20:19.407144,2020-02-05,
2020-06-19 08:28:24.508378,DAO,5.0,0.21,2020-06-14 08:28:24.508378,2020-06-14,
2020-05-13 22:40:13.805930,DDOG,4.0,0.4,2020-05-09 22:40:13.805930,2020-05-09,
2020-06-17 07:57:34.877522,DPZ,13.0,0.43,2020-06-04 07:57:34.877522,2020-06-04,92.0
2020-07-13 09:28:01.066175,DQ,8.0,0.2,2020-07-05 09:28:01.066175,2020-07-05,
2020-06-01 10:07:35.474676,DSGX,24.0,0.21,2020-05-08 10:07:35.474676,2020-05-08,
2020-05-19 19:20:30.869293,DT,94.0,0.34,2020-02-15 19:20:30.869293,2020-02-15,
2020-05-13 22:45:31.831757,DXCM,23.0,0.45,2020-04-20 22:45:31.831757,2020-04-20,
2020-07-09 07:49:25.063406,EA,60.0,0.2,2020-05-10 07:49:25.063406,2020-05-10,
2020-06-26 09:11:23.567595,EBAY,35.0,0.2,2020-05-22 09:11:23.567595,2020-05-22,
2020-07-17 09:58:32.686095,EBS,59.0,0.48,2020-05-19 09:58:32.686095,2020-05-19,
2020-07-14 08:42:13.849702,EVER,121.0,0.41,2020-03-15 08:42:13.849702,2020-03-15,
2020-07-15 09:20:14.739469,FLGT,111.0,0.33,2020-03-26 09:20:14.739469,2020-03-26,
2020-05-15 10:28:03.730586,FNV,25.0,0.24,2020-04-20 10:28:03.730586,2020-04-20,
2020-07-15 09:12:57.053917,FOCS,103.0,0.2,2020-04-03 09:12:57.053917,2020-04-03,
2020-07-11 15:00:02.371731,FOLD,59.0,0.43,2020-05-13 15:00:02.371731,2020-05-13,
2020-06-17 08:03:45.653964,FORM,35.0,0.21,2020-05-13 08:03:45.653964,2020-05-13,
2020-05-13 22:41:10.367569,FTNT,19.0,0.22,2020-04-24 22:41:10.367569,2020-04-24,
2020-07-11 15:00:54.132306,GDS,20.0,0.31,2020-06-21 15:00:54.132306,2020-06-21,
2020-06-04 09:02:05.234182,GLOB,111.0,0.31,2020-02-14 09:02:05.234182,2020-02-14,
2020-05-26 07:49:27.046000,GMAB,14.0,0.22,2020-05-12 07:49:27.046000,2020-05-12,
2020-07-11 15:01:16.893850,GNMK,14.0,0.29,2020-06-27 15:01:16.893850,2020-06-27,
2020-05-15 10:25:36.956481,GOLD,25.0,0.24,2020-04-20 10:25:36.956481,2020-04-20,
2020-06-02 09:24:14.523213,GOLF,11.0,0.2,2020-05-22 09:24:14.523213,2020-05-22,
2020-06-17 18:37:19.801355,GSX,3.0,0.21,2020-06-14 18:37:19.801355,2020-06-14,
2020-06-09 10:39:59.049025,GWPH,24.0,0.21,2020-05-16 10:39:59.049025,2020-05-16,
2020-06-04 09:24:29.894369,HEBT,26.0,0.25,2020-05-09 09:24:29.894369,2020-05-09,
2020-07-13 09:30:01.147728,HELE,39.0,0.21,2020-06-04 09:30:01.147728,2020-06-04,
2020-06-22 07:39:22.277889,HL,81.0,0.29,2020-04-02 07:39:22.277889,2020-04-02,
2020-07-11 15:00:12.192076,HUBS,103.0,0.24,2020-03-30 15:00:12.192076,2020-03-30,
2020-05-15 10:31:35.931789,HZNP,8.0,0.2,2020-05-07 10:31:35.931789,2020-05-07,
2020-07-21 11:29:31.601638,IDXX,67.0,0.37,2020-05-15 11:29:31.601638,2020-05-15,
2020-05-15 10:28:17.447656,IPHI,29.0,0.24,2020-04-16 10:28:17.447656,2020-04-16,
2020-05-13 22:40:24.868435,IRTC,11.0,0.24,2020-05-02 22:40:24.868435,2020-05-02,
2020-06-19 08:21:20.441198,KLAC,13.0,0.35000000000000003,2020-06-06 08:21:20.441198,2020-06-06,
2020-07-21 11:29:34.348845,KNSL,58.0,0.43,2020-05-24 11:29:34.348845,2020-05-24,
2020-07-08 09:49:42.166052,LGIH,107.0,0.22,2020-03-23 09:49:42.166052,2020-03-23,
2020-07-11 14:58:38.063059,LHCG,43.0,0.26,2020-05-29 14:58:38.063059,2020-05-29,
2020-06-18 09:15:18.995161,LOGI,52.0,0.38,2020-04-27 09:15:18.995161,2020-04-27,
2020-07-16 10:47:08.539632,LOW,164.0,0.21,2020-02-03 10:47:08.539632,2020-02-03,
2020-07-11 14:59:37.428195,LSCC,51.0,0.43,2020-05-21 14:59:37.428195,2020-05-21,
2020-06-15 09:19:39.318655,LULU,169.0,0.45,2019-12-29 09:19:39.318655,2019-12-29,
2020-05-29 08:41:21.005486,MDB,14.0,0.21,2020-05-15 08:41:21.005486,2020-05-15,
2020-07-17 09:58:10.457959,MELI,52.0,0.49,2020-05-26 09:58:10.457959,2020-05-26,
2020-06-01 10:04:46.830031,MKTX,33.0,0.26,2020-04-29 10:04:46.830031,2020-04-29,
2020-07-06 12:37:27.583741,MODN,171.0,0.32,2020-01-17 12:37:27.583741,2020-01-17,
2020-05-20 18:52:16.817266,MPWR,31.0,0.2,2020-04-19 18:52:16.817266,2020-04-19,
2020-06-04 09:05:23.665208,MRVL,35.0,0.42,2020-04-30 09:05:23.665208,2020-04-30,
2020-07-06 12:37:33.609633,MSFT,56.0,0.2,2020-05-11 12:37:33.609633,2020-05-11,
2020-05-15 10:32:02.427385,NFLX,90.0,0.31,2020-02-15 10:32:02.427385,2020-02-15,
2020-07-20 08:43:35.652033,NOW,53.0,0.22,2020-05-28 08:43:35.652033,2020-05-28,92.0
2020-06-23 08:23:25.264441,NTES,48.0,0.2,2020-05-06 08:23:25.264441,2020-05-06,
2020-06-19 08:21:51.150474,NUAN,29.0,0.22,2020-05-21 08:21:51.150474,2020-05-21,
2020-06-05 08:25:24.789360,NVDA,42.0,0.28,2020-04-24 08:25:24.789360,2020-04-24,
2020-07-11 14:58:53.349844,OSPN,32.0,0.4,2020-06-09 14:58:53.349844,2020-06-09,
2020-05-29 08:30:50.413216,PAAS,71.0,0.2,2020-03-19 08:30:50.413216,2020-03-19,
2020-07-11 14:58:50.329293,PCRX,45.0,0.34,2020-05-27 14:58:50.329293,2020-05-27,
2020-06-04 09:00:19.454633,PCTY,137.0,0.23,2020-01-19 09:00:19.454633,2020-01-19,
2020-07-11 14:55:12.216040,PDD,100.0,0.35000000000000003,2020-04-02 14:55:12.216040,2020-04-02,
2020-06-09 10:43:24.671566,PENN,108.0,0.26,2020-02-22 10:43:24.671566,2020-02-22,
2020-05-26 10:10:15.224404,PETS,74.0,0.34,2020-03-13 10:10:15.224404,2020-03-13,
2020-06-16 07:38:42.981386,PFSI,92.0,0.22,2020-03-16 07:38:42.981386,2020-03-16,
2020-06-04 08:57:23.456307,PING,134.0,0.38,2020-01-22 08:57:23.456307,2020-01-22,
2020-06-04 09:13:37.334685,PLMR,34.0,0.37,2020-05-01 09:13:37.334685,2020-05-01,
2020-07-10 09:34:11.990866,POOL,38.0,0.21,2020-06-02 09:34:11.990866,2020-06-02,92.0
2020-06-19 08:22:45.197138,POWI,52.0,0.37,2020-04-28 08:22:45.197138,2020-04-28,
2020-05-19 08:21:45.382286,PYPL,11.0,0.2,2020-05-08 08:21:45.382286,2020-05-08,
2020-06-09 10:32:31.920994,REGI,15.0,0.25,2020-05-25 10:32:31.920994,2020-05-25,
2020-05-28 09:17:28.329046,RGEN,26.0,0.2,2020-05-02 09:17:28.329046,2020-05-02,
2020-07-13 18:27:54.210134,RNG,130.0,0.46,2020-03-05 18:27:54.210134,2020-03-05,
2020-05-29 08:36:41.659374,ROK,25.0,0.24,2020-05-04 08:36:41.659374,2020-05-04,
2020-07-10 09:32:22.071564,SAIA,37.0,0.2,2020-06-03 09:32:22.071564,2020-06-03,93.0
2020-07-20 08:37:51.092024,SAIL,134.0,0.21,2020-03-08 08:37:51.092024,2020-03-08,
2020-05-20 11:37:09.865342,SEDG,97.0,0.41,2020-02-13 11:37:09.865342,2020-02-13,
2020-05-13 22:46:40.098015,SHOP,18.0,0.27,2020-04-25 22:46:40.098015,2020-04-25,
2020-06-17 08:07:03.919999,SITE,109.0,0.22,2020-02-29 08:07:03.919999,2020-02-29,
2020-06-01 10:01:55.268541,SLP,28.0,0.27,2020-05-04 10:01:55.268541,2020-05-04,
2020-06-17 08:05:55.362194,SNAP,107.0,0.35000000000000003,2020-03-02 08:05:55.362194,2020-03-02,
2020-06-17 18:39:23.767714,SNPS,35.0,0.21,2020-05-13 18:39:23.767714,2020-05-13,
2020-07-07 10:42:54.570699,SPGI,50.0,0.2,2020-05-18 10:42:54.570699,2020-05-18,
2020-06-22 08:05:42.981767,SPLK,24.0,0.2,2020-05-29 08:05:42.981767,2020-05-29,
2020-07-11 15:00:05.758442,SPSC,54.0,0.46,2020-05-18 15:00:05.758442,2020-05-18,
2020-06-04 09:06:15.072817,SQ,92.0,0.27,2020-03-04 09:06:15.072817,2020-03-04,
2020-06-23 08:24:44.198767,SRPT,26.0,0.2,2020-05-28 08:24:44.198767,2020-05-28,
2020-05-15 19:53:21.831445,SSRM,100.0,0.21,2020-02-05 19:53:21.831445,2020-02-05,
2020-07-06 08:02:32.666226,SVMK,121.0,0.22,2020-03-07 08:02:32.666226,2020-03-07,
2020-05-29 08:11:14.619866,TEAM,31.0,0.21,2020-04-28 08:11:14.619866,2020-04-28,
2020-06-10 13:35:11.091336,TMUS,41.0,0.2,2020-04-30 13:35:11.091336,2020-04-30,
2020-07-08 09:51:53.317462,TRUP,16.0,0.38,2020-06-22 09:51:53.317462,2020-06-22,85.0
2020-07-10 09:33:45.761618,TSCO,32.0,0.2,2020-06-08 09:33:45.761618,2020-06-08,89.0
2020-06-02 11:45:49.512588,TTD,111.0,0.2,2020-02-12 11:45:49.512588,2020-02-12,
2020-06-22 08:07:44.016392,TTD,54.0,0.32,2020-04-29 08:07:44.016392,2020-04-29,
2020-05-20 11:28:03.193008,TTWO,27.0,0.2,2020-04-23 11:28:03.193008,2020-04-23,
2020-05-29 08:14:52.188852,TW,31.0,0.2,2020-04-28 08:14:52.188852,2020-04-28,
2020-05-29 08:19:39.110035,VEEV,32.0,0.2,2020-04-27 08:19:39.110035,2020-04-27,
2020-06-17 08:04:11.871836,WGO,123.0,0.32,2020-02-15 08:04:11.871836,2020-02-15,
2020-07-11 15:00:32.950995,WING,106.0,0.42,2020-03-27 15:00:32.950995,2020-03-27,
2020-05-13 22:45:54.590329,WPM,26.0,0.43,2020-04-17 22:45:54.590329,2020-04-17,
2020-05-29 08:29:12.028824,WST,32.0,0.24,2020-04-27 08:29:12.028824,2020-04-27,
2020-06-19 08:17:55.427560,XP,106.0,0.21,2020-03-05 08:17:55.427560,2020-03-05,
2020-06-04 09:21:52.571400,Z,100.0,0.39,2020-02-25 09:21:52.571400,2020-02-25,
2020-06-19 08:22:11.398334,ZLAB,44.0,0.24,2020-05-06 08:22:11.398334,2020-05-06,
2020-05-13 22:46:28.716625,ZNTL,15.0,0.35000000000000003,2020-04-28 22:46:28.716625,2020-04-28,
2020-06-05 08:26:35.083209,ZYXI,32.0,0.46,2020-05-04 08:26:35.083209,2020-05-04,
